First Analysis
…
where \(d\) stands for department.

data<- data %>%  
  mutate(dep_idx = factor(dep, levels = unique(dep)),
          dep_id = as.integer(dep_idx)) %>%
  select(-dep_idx)
data<-data[,c(1,2,3,6,4,5)]
data

## # A tibble: 83 x 6
##    date       elapsed_time dep       dep_id     n cumulative_dep
##    <date>            <dbl> <chr>      <int> <dbl>          <dbl>
##  1 2020-03-09            3 Antioquia      1     1              1
##  2 2020-03-11            5 Antioquia      1     3              4
##  3 2020-03-14            8 Antioquia      1     3              7
##  4 2020-03-15            9 Antioquia      1     1              8
##  5 2020-03-19           13 Antioquia      1     3             11
##  6 2020-03-20           14 Antioquia      1    11             22
##  7 2020-03-21           15 Antioquia      1     3             25
##  8 2020-03-22           16 Antioquia      1     5             30
##  9 2020-03-23           17 Antioquia      1    22             52
## 10 2020-03-25           19 Antioquia      1     8             60
## #  with 73 more rows
…
